C:\Users\kbettadapur3-gtri\Documents\vaadin-spring\testvaadin\src\main\java\com\gtri\kirin\MyUI.java
C:\Users\kbettadapur3-gtri\Documents\vaadin-spring\testvaadin\src\main\java\com\gtri\kirin\TestForm.java
C:\Users\kbettadapur3-gtri\Documents\vaadin-spring\testvaadin\src\main\java\com\gtri\kirin\TestDesign.java
